WARNING : Starting without PULSE wiring because of args restart
/home/koreth/Documents/Soundboard/control_midi.sh: aucun processus trouvé
jeu. 28 avril 2022 11:20:09 CEST : Launching /home/koreth/Documents/Soundboard/control_midi.sh in /home/koreth/Documents/Soundboard
Resetting all devices
Resetting webcam
Resetting potars
amidi -p hw:3,0,0 -S BA 1 00
amidi -p hw:3,0,0 -S BA 2 00
amidi -p hw:3,0,0 -S BA 3 00
amidi -p hw:3,0,0 -S BA 4 00
amidi -p hw:3,0,0 -S BA 5 00
amidi -p hw:3,0,0 -S BA 6 00
amidi -p hw:3,0,0 -S BA 7 00
amidi -p hw:3,0,0 -S BA 8 00
Resetting buttons
amidi -p hw:3,0,0 -S 90 8 00
amidi -p hw:3,0,0 -S 90 9 00
amidi -p hw:3,0,0 -S 90 10 00
amidi -p hw:3,0,0 -S 90 11 00
amidi -p hw:3,0,0 -S 90 12 00
amidi -p hw:3,0,0 -S 90 13 00
amidi -p hw:3,0,0 -S 90 14 00
amidi -p hw:3,0,0 -S 90 15 00
amidi -p hw:3,0,0 -S 90 16 00
amidi -p hw:3,0,0 -S 90 17 00
amidi -p hw:3,0,0 -S 90 18 00
amidi -p hw:3,0,0 -S 90 19 00
amidi -p hw:3,0,0 -S 90 20 00
amidi -p hw:3,0,0 -S 90 21 00
amidi -p hw:3,0,0 -S 90 22 00
amidi -p hw:3,0,0 -S 90 23 00
Skipping PULSE wiring
cannot open port "hw:3,0,0": No such file or directory
cannot open port "hw:3,0,0": No such file or directory
